Program project collaboration through publication and citation — copublication_data • grantpubcite
…
cocite_data <- cocitation_data(foas)
cocite_data
#> # A tibble: 85 × 4
#>        pmid cited_by core_project_num cited_by_core_project_num
#>       <int>    <dbl> <chr>            <chr>                    
#>  1 29985391 31913126 U24CA248457      U24CA248457              
#>  2 29985391 30773340 U24CA248457      U24CA248457              
#>  3 30563849 35977718 U24CA248457      U24CA248457              
#>  4 30723579 34641956 U24CA248457      U24CA248457              
#>  5 30723579 32530570 U24CA248457      U24CA248457              
#>  6 30773340 31913126 U24CA248457      U24CA248457              
#>  7 30773340 31171722 U24CA248457      U24CA248457              
#>  8 30773340 34376580 U24CA248457      U24CA248457              
#>  9 31913126 34376580 U24CA248457      U24CA248457              
#> 10 31932491 34376580 U24CA248457      U24CA248457              
#> # ℹ 75 more rows

## pmid / core_project_num (and cited_by / cited_by_core_project_num)
## reflects the fact that a single pmid may acknowledge several
## projects
cocite_data |>
    distinct(pmid, core_project_num) |>
    count(pmid, sort = TRUE)
#> # A tibble: 55 × 2
#>        pmid     n
#>       <int> <int>
#>  1 29985391     1
#>  2 30563849     1
#>  3 30723579     1
#>  4 30773340     1
#>  5 31913126     1
#>  6 31932491     1
#>  7 32119649     1
#>  8 32142794     1
#>  9 32216127     1
#> 10 32679308     1
#> # ℹ 45 more rows
…
