Program-level queries and summaries — program_summary • grantpubcite
…
pubs <- program_publications(foas)

## note that individual publications can be represented by more
## than one project
pubs
#> # A tibble: 262 × 11
#>    opportunity_number core_project_num    pmid  year title authors journal doi  
#>    <chr>              <chr>              <int> <int> <chr> <chr>   <chr>   <chr>
#>  1 RFA-CA-19-040      U24CA253539       3.64e7  2023 PDCM… Zinaid… Nuclei… 10.1…
#>  2 RFA-CA-19-040      U24CA253531       3.68e7  2023 Eval… Dariya… Tomogr… 10.3…
#>  3 RFA-CA-19-040      U24CA253531       3.70e7  2023 Anim… Donna … Tomogr… 10.3…
#>  4 RFA-CA-19-040      U24CA253531       3.72e7  2023 Co-C… Stephe… Tomogr… 10.3…
#>  5 RFA-CA-19-040      U24CA253531       3.44e7  2021 Deep… Kaushi… Cancer… 10.3…
#>  6 RFA-CA-19-040      U24CA253531       3.43e7  2022 Co-c… Sudipt… Eur J … 10.1…
#>  7 RFA-CA-19-040      U24CA253531       3.71e7  2023 An O… Seth T… Tomogr… 10.3…
#>  8 RFA-CA-19-041      U24CA248457       3.13e7  2019 Metf… Xingyu… Cancer… 10.1…
#>  9 RFA-CA-19-041      U24CA248457       3.19e7  2020 STRI… Jong W… Elife   10.7…
#> 10 RFA-CA-19-041      U24CA248457       3.21e7  2020 TEAD… Jingti… J Inve… 10.1…
#> # ℹ 252 more rows
#> # ℹ 3 more variables: citation_count <int>, relative_citation_ratio <dbl>,
#> #   field_citation_rate <dbl>

## unique publications
unique_pubs <-
    pubs |>
    select(-c("opportunity_number", "core_project_num")) |>
    distinct()
unique_pubs
#> # A tibble: 262 × 9
#>        pmid  year title                     authors journal doi   citation_count
#>       <int> <int> <chr>                     <chr>   <chr>   <chr>          <int>
#>  1 36399494  2023 PDCM Finder: an open glo… Zinaid… Nuclei… 10.1…              3
#>  2 36828382  2023 Evaluation of Apparent D… Dariya… Tomogr… 10.3…              3
#>  3 36961012  2023 Animal Models and Their … Donna … Tomogr… 10.3…              2
#>  4 37218941  2023 Co-Clinical Imaging Meta… Stephe… Tomogr… 10.3…              2
#>  5 34359696  2021 Deep Learning Segmentati… Kaushi… Cancer… 10.3…             17
#>  6 34328530  2022 Co-clinical FDG-PET radi… Sudipt… Eur J … 10.1…             31
#>  7 37104131  2023 An Online Repository for… Seth T… Tomogr… 10.3…              2
#>  8 31292160  2019 Metformin Inhibits Progr… Xingyu… Cancer… 10.1…             27
#>  9 31913126  2020 STRIPAK directs PP2A act… Jong W… Elife   10.7…             32
#> 10 32142794  2020 TEAD1 and TEAD3 Play Red… Jingti… J Inve… 10.1…             12
#> # ℹ 252 more rows
#> # ℹ 2 more variables: relative_citation_ratio <dbl>, field_citation_rate <dbl>
…
## collaborations; see `?copublication`, `?cocitation`
pubs |>
    count(pmid, sort = TRUE, name = "n_collab") |>
    left_join(unique_pubs, by = "pmid")
#> # A tibble: 262 × 10
#>        pmid n_collab  year title            authors journal doi   citation_count
#>       <int>    <int> <int> <chr>            <chr>   <chr>   <chr>          <int>
#>  1 29985391        1  2018 Assembly and ac… Daniel… Nat Co… 10.1…            101
#>  2 30563849        1  2019 A Curated Resou… Karste… Mol Ce… 10.1…            127
#>  3 30583461        1  2018 Comprehensive G… Natali… Cancer… 10.3…             20
#>  4 30723579        1  2018 APOBEC-related … Amélie… Oncoim… 10.1…             48
#>  5 30773340        1  2019 A Platform of S… Xiaodo… Cancer… 10.1…            134
#>  6 31171722        1  2019 Illuminating th… Victor… J Biol… 10.1…            109
#>  7 31292160        1  2019 Metformin Inhib… Xingyu… Cancer… 10.1…             27
#>  8 31395609        1  2019 Use of Natural … Guerga… Cancer… 10.1…             54
#>  9 31513970        1  2019 Cyclin E Overex… Servan… iScien… 10.1…              3
#> 10 31695841        1  2019 The multikinase… Sean M… Oncota… 10.1…              8
#> # ℹ 252 more rows
#> # ℹ 2 more variables: relative_citation_ratio <dbl>, field_citation_rate <dbl>
…
