Query projects, publications and citations — reporter_projects • grantpubcite
…
## select fields of interest
include_fields <- c(
    "opportunity_number",
    "core_project_num",
    "fiscal_year",
    "award_amount",
    "contact_pi_name",
    "project_title",
    "project_start_date",
    "project_end_date"
)
projects <- reporter_projects(foa = foas, include_fields = include_fields)
projects
#> # A tibble: 189 × 8
#>    opportunity_number core_project_num fiscal_year award_amount contact_pi_name 
#>    <chr>              <chr>                  <int>        <int> <chr>           
#>  1 PAR-15-331         U24CA220242             2019       550158 ABYZOV, ALEXEJ  
#>  2 PAR-15-331         U24CA220242             2022       561369 ABYZOV, ALEXEJ  
#>  3 PAR-15-331         U24CA220242             2021       572828 ABYZOV, ALEXEJ  
#>  4 PAR-15-331         U24CA220242             2018       559916 ABYZOV, ALEXEJ  
#>  5 PAR-15-331         U24CA220242             2020       383715 ABYZOV, ALEXEJ  
#>  6 PAR-15-334         R21CA220352             2019       156788 ARNOLD, COREY W…
#>  7 PAR-15-334         R21CA220352             2018       195568 ARNOLD, COREY W…
#>  8 PAR-15-332         U01CA242871             2019       378519 BAKAS, SPYRIDON 
#>  9 PAR-15-332         U01CA242871             2020       360393 BAKAS, SPYRIDON 
#> 10 PAR-15-332         U01CA242871             2021       357972 BAKAS, SPYRIDON 
#> # ℹ 179 more rows
#> # ℹ 3 more variables: project_title <chr>, project_start_date <date>,
#> #   project_end_date <date>

core_project_nums <- pull(projects, "core_project_num")
publications <- reporter_publications(core_project_nums = core_project_nums)
publications
#> # A tibble: 982 × 3
#>    coreproject     pmid   applid
#>    <chr>          <int>    <int>
#>  1 U24CA237719 31907209 10620674
#>  2 U24CA237719 31779674 10620674
#>  3 U24CA237719 35072136 10620674
#>  4 U24CA237719 35366592 10620674
#>  5 U24CA237719 36949070 10620674
#>  6 U24CA237719 31645350 10620674
#>  7 U24CA237719 31462330 10620674
#>  8 U24CA237719 31796060 10620674
#>  9 U24CA237719 32665297 10620674
#> 10 U24CA237719 32644817 10620674
#> # ℹ 972 more rows
…
include_fields <- c(
    "pmid", "year", "citation_count", "relative_citation_ratio",
    "doi"
)
icite(publications, include_fields)
#> # A tibble: 924 × 5
#>        pmid  year citation_count relative_citation_ratio doi                    
#>       <dbl> <dbl>          <dbl>                   <dbl> <chr>                  
#>  1 19898898  2010             32                    0.78 10.1245/s10434-009-079…
#>  2 24925914  2014           2728                   80.7  10.1126/science.1254257
#>  3 24931973  2014             42                    1.25 10.1093/bioinformatics…
#>  4 25086664  2014             93                    2.46 10.1038/ng.3051        
#>  5 25714012  2015             10                    0.35 10.18632/oncotarget.29…
#>  6 26083491  2015             26                    0.8  10.1371/journal.pone.0…
#>  7 26463000  2016             34                    1.12 10.1093/bib/bbv080     
#>  8 26594663  2015            151                    4.68 10.1016/j.cels.2015.10…
#>  9 26638175  2015            155                    4.33 10.1016/j.molcel.2015.…
#> 10 26644347  2015             28                    0.81 10.1038/ncomms9726     
#> # ℹ 914 more rows
…
