Case study: ITCR • grantpubcite
…
ITCR collaboration

ITCR emphasizes collaboration between funded projects. Are there
examples of collaboration at the level of publication, i.e.,
pmid associated with more than one project number?

collaborative_pmid <-
    publications |>
    count(pmid, sort = TRUE, name = "n_collab") |>
    filter(n_collab > 1)
collaborative_pmid
#> # A tibble: 89 × 2
#>        pmid n_collab
#>       <int>    <int>
#>  1 32383980        3
#>  2 33237278        3
#>  3 33720842        3
#>  4 35072136        3
#>  5 29533785        2
#>  6 30563849        2
#>  7 30773340        2
#>  8 30930166        2
#>  9 31171722        2
#> 10 31238109        2
#> # … with 79 more rows
…
