Introduction to 'grantpubcite' • grantpubcite
…
Now execute the reporter_projects() query on all of our
FOA of interest, including only the fields of interest in the
response.

projects <- reporter_projects(foa = foas, include_fields = include_fields)
projects
#> # A tibble: 187 × 8
#>    full_foa   core_project_num fiscal_year award_amount contact_pi_name    
#>    <chr>      <chr>                  <int>        <int> <chr>              
#>  1 PAR-15-331 U24CA220242             2019       550158 ABYZOV, ALEXEJ     
#>  2 PAR-15-331 U24CA220242             2022       561369 ABYZOV, ALEXEJ     
#>  3 PAR-15-331 U24CA220242             2021       572828 ABYZOV, ALEXEJ     
#>  4 PAR-15-331 U24CA220242             2018       559916 ABYZOV, ALEXEJ     
#>  5 PAR-15-331 U24CA220242             2020       383715 ABYZOV, ALEXEJ     
#>  6 PAR-15-334 R21CA220352             2019       156788 ARNOLD, COREY WELLS
#>  7 PAR-15-334 R21CA220352             2018       195568 ARNOLD, COREY WELLS
#>  8 PAR-15-332 U01CA242871             2019       378519 BAKAS, SPYRIDON    
#>  9 PAR-15-332 U01CA242871             2020       360393 BAKAS, SPYRIDON    
#> 10 PAR-15-332 U01CA242871             2021       357972 BAKAS, SPYRIDON    
#> # ℹ 177 more rows
#> # ℹ 3 more variables: project_title <chr>, project_start_date <date>,
#> #   project_end_date <date>
NIH Reporter publications

The NIH Reporter publication
search API provides a way to retrieve publications reported as
grant-supported. The search criteria are complicated, but the return
value is always a tibble with columns coreproject,
pmid, and applid. Here we search for all
citations from the projects funded by current ITCR FOAs.

core_project_nums <-
    pull(projects, "core_project_num") |>
    unique()
publications <- reporter_publications(core_project_nums = core_project_nums)
publications
#> # A tibble: 876 × 3
#>    coreproject     pmid   applid
#>    <chr>          <int>    <int>
#>  1 U24CA237719 31618044 10370336
#>  2 U24CA237719 33260207 10370336
#>  3 U24CA237719 36273232 10370336
#>  4 U24CA237719 31645350 10370336
#>  5 U24CA237719 35101336 10370336
#>  6 U24CA237719 36373660 10370336
#>  7 U24CA237719 32644817 10370336
#>  8 U24CA237719 33547198 10370336
#>  9 U24CA237719 35624339 10370336
#> 10 U24CA237719 31462330 10370336
#> # ℹ 866 more rows
…
Identify fields of interest, and query for all publications
associated the

include_fields <- c(
    "pmid", "year", "citation_count", "relative_citation_ratio",
    "doi"
)
icite(publications, include_fields)
#> # A tibble: 827 × 5
#>        pmid  year citation_count relative_citation_ratio doi                    
#>       <dbl> <dbl>          <dbl>                   <dbl> <chr>                  
#>  1 19898898  2010             32                    0.8  10.1245/s10434-009-079…
#>  2 24925914  2014           2468                   77.7  10.1126/science.1254257
#>  3 24931973  2014             36                    1.2  10.1093/bioinformatics…
#>  4 25086664  2014             92                    2.56 10.1038/ng.3051        
#>  5 25714012  2015             10                    0.37 10.18632/oncotarget.29…
#>  6 26083491  2015             25                    0.81 10.1371/journal.pone.0…
#>  7 26463000  2016             33                    1.17 10.1093/bib/bbv080     
#>  8 26594663  2015            141                    4.63 10.1016/j.cels.2015.10…
#>  9 26638175  2015            141                    4.19 10.1016/j.molcel.2015.…
#> 10 26644347  2015             26                    0.8  10.1038/ncomms9726     
#> # ℹ 817 more rows
…
